{
  "variables": {
    "box_basename": "debian9",
    "version": "1.0",
    "git_revision": "__unknown_git_revision__",
    "headless": "false",
    "http_proxy": "{{env `http_proxy`}}",
    "https_proxy": "{{env `https_proxy`}}",
    "iso_checksum": "345c4e674dc10476e8c4f1571fbcdba4ce9788aa5584c5e2590ab3e89e7bb9acb370536f41a3ac740eb92b6aebe3cb8eb9734874dd1658c68875981b8351bc38",
    "iso_checksum_type": "sha512",
    "iso_name": "debian-9.4.0-amd64-netinst.iso",
    "mirror": "http://cdimage.debian.org/cdimage/release",
    "mirror_directory": "9.4.0/amd64/iso-cd",
    "name": "debian-9.4",
    "no_proxy": "{{env `no_proxy`}}",
    "preseed_path": "debian-9-preseed.cfg",
    "template": "debian-9.4-amd64"
  },

  "builders": [
    {
      "type": "qemu",
      "vm_name": "{{ user `template` }}",
      "iso_checksum": "{{user `iso_checksum`}}",
      "iso_checksum_type": "{{user `iso_checksum_type`}}",
      "iso_url": "{{user `mirror`}}/{{user `mirror_directory`}}/{{user `iso_name`}}",
      "http_directory": "http",
      "output_directory": "packer-{{user `template`}}-qemu",
      "accelerator": "kvm",
      "disk_interface": "virtio",
      "disk_size": 10240,
      "format": "qcow2",
      "net_device": "virtio-net",
      "headless": "{{ user `headless` }}",
      "ssh_password": "vagrant",
      "ssh_port": 22,
      "ssh_username": "vagrant",
      "ssh_wait_timeout": "30m",
      "boot_wait": "10s",
      "boot_command": [
        "<esc><wait>",
        "install <wait>",
        " preseed/url=http://{{ .HTTPIP }}:{{ .HTTPPort }}/{{user `preseed_path`}} <wait>",
        "debian-installer=en_US <wait>",
        "auto <wait>",
        "locale=en_US <wait>",
        "kbd-chooser/method=us <wait>",
        "keyboard-configuration/xkb-keymap=us <wait>",
        "netcfg/get_hostname={{ .Name }} <wait>",
        "netcfg/get_domain=vagrantup.com <wait>",
        "fb=false <wait>",
        "debconf/frontend=noninteractive <wait>",
        "console-setup/ask_detect=false <wait>",
        "console-keymaps-at/keymap=us <wait>",
        "<enter><wait>"
      ],
      "shutdown_command": "echo 'vagrant' | sudo -S /sbin/shutdown -hP now"
    }
  ],
  "post-processors": [
    {
      "type": "vagrant",
      "output": "builds/{{user `template`}}.{{.Provider}}.box"
    }
  ],
  "provisioners": [
    {
      "type": "shell",
      "environment_vars": [
        "HOME_DIR=/home/vagrant",
        "http_proxy={{user `http_proxy`}}",
        "https_proxy={{user `https_proxy`}}",
        "no_proxy={{user `no_proxy`}}"
      ],
      "execute_command": "echo 'vagrant' | {{.Vars}} sudo -S -E sh -eux '{{.Path}}'",
      "scripts": [
        "scripts/update.sh",
        "scripts/sshd.sh",
        "scripts/sudoers.sh",
        "scripts/vagrant.sh",
        "scripts/vmtools.sh",
        "scripts/cleanup.sh",
        "scripts/minimize.sh"
      ]
    }
  ]
}
